No.,Device,Temp,Humid
1,2,25.33,50.11
2,5,25.33,50.11
3,3,25.33,50.11
4,4,28.00,55.00
5,5,26.00,58.00
6,6,28.00,51.00
7,7,21.00,60.00
8,8,22.00,43.00
9,9,25.00,50.00
10,10,25.00,55.00
11,11,21.00,31.00
12,12,23.00,48.00
13,13,27.00,39.00
14,14,27.00,38.00
15,15,22.00,39.00
16,16,23.00,53.00
17,17,22.00,58.00
18,18,22.00,33.00
19,19,23.00,69.00
20,20,29.00,32.00
21,21,23.00,38.00
22,22,29.00,60.00
23,23,30.00,61.00
24,24,24.00,37.00
25,25,28.00,68.00
26,26,30.00,35.00
27,27,27.00,37.00
28,28,28.00,33.00
29,29,23.00,53.00
30,30,26.00,47.00
31,31,28.00,39.00
32,32,23.00,60.00
33,33,23.00,54.00
34,34,24.00,56.00
35,35,23.00,66.00
36,36,27.00,48.00
37,37,29.00,54.00
38,38,26.00,69.00
39,39,27.00,57.00
40,40,25.00,59.00
41,41,24.00,58.00
42,42,23.00,66.00
43,43,25.00,43.00
44,44,25.00,30.00
45,45,27.00,70.00
46,46,20.00,55.00
47,47,23.00,66.00
48,48,27.00,62.00
49,49,21.00,35.00
50,50,23.00,38.00
51,51,30.00,53.00
52,52,21.00,44.00
53,53,28.00,31.00
54,54,30.00,32.00
55,55,28.00,40.00
56,56,20.00,47.00
57,57,29.00,58.00
58,58,22.00,63.00
59,59,24.00,47.00
60,60,22.00,44.00
61,61,20.00,31.00
62,62,24.00,44.00
63,63,23.00,55.00
64,64,21.00,54.00
65,65,25.00,37.00
66,66,30.00,57.00
67,67,28.00,59.00
68,68,29.00,69.00
69,69,21.00,63.00
70,70,28.00,37.00
71,71,26.00,64.00
72,72,25.00,65.00
73,73,20.00,60.00
74,74,20.00,30.00
75,75,30.00,55.00
76,76,29.00,59.00
77,77,28.00,67.00
78,78,28.00,39.00
79,79,28.00,32.00
80,80,20.00,32.00
81,81,26.00,49.00
82,82,21.00,64.00
83,83,21.00,47.00
84,84,26.00,42.00
85,85,26.00,67.00
86,86,27.00,34.00
87,87,25.00,69.00
88,88,30.00,31.00
89,89,30.00,51.00
90,90,26.00,34.00
91,91,20.00,46.00
92,92,23.00,33.00
93,93,25.00,55.00
94,94,24.00,41.00
95,95,29.00,51.00
96,96,23.00,40.00
97,97,29.00,62.00
98,98,24.00,46.00
99,99,21.00,34.00
100,100,24.00,41.00
101,101,21.00,69.00
102,102,23.00,67.00
103,103,20.00,69.00
104,104,20.00,33.00
105,105,24.00,37.00
106,106,29.00,44.00
107,107,24.00,37.00
108,108,26.00,59.00
109,109,23.00,61.00
110,110,29.00,65.00
111,111,23.00,49.00
112,112,28.00,61.00
113,113,25.00,56.00
114,114,24.00,36.00
115,115,29.00,57.00
116,116,28.00,34.00
117,117,22.00,47.00
118,118,20.00,33.00
119,119,26.00,62.00
120,120,27.00,70.00
121,121,25.00,30.00
122,122,25.00,39.00
123,123,28.00,62.00
124,124,27.00,42.00
125,125,21.00,58.00
126,126,29.00,51.00
127,127,20.00,35.00
128,128,27.00,48.00
129,129,24.00,39.00
130,130,27.00,31.00
131,131,22.00,61.00
132,132,23.00,46.00
133,133,27.00,46.00
134,134,22.00,59.00
135,135,24.00,39.00
136,136,21.00,66.00
137,137,27.00,34.00
138,138,28.00,69.00
139,139,25.00,37.00
140,140,25.00,69.00
141,141,28.00,64.00
142,142,25.00,57.00
143,143,22.00,50.00
144,144,23.00,30.00
145,145,23.00,44.00
146,146,28.00,53.00
147,147,22.00,40.00
148,148,28.00,45.00
149,149,25.00,37.00
150,150,21.00,54.00
151,151,30.00,65.00
152,152,22.00,32.00
153,153,20.00,53.00
154,154,30.00,57.00
155,155,21.00,58.00
156,156,26.00,57.00
157,157,26.00,35.00
158,158,27.00,57.00
159,159,28.00,64.00
160,160,22.00,50.00
161,161,20.00,52.00
162,162,27.00,49.00
163,163,27.00,39.00
164,164,27.00,55.00
165,165,26.00,60.00
166,166,20.00,45.00
167,167,23.00,40.00
168,168,30.00,62.00
169,169,29.00,58.00
170,170,29.00,67.00
171,171,29.00,30.00
172,172,30.00,55.00
173,173,30.00,70.00
174,174,25.00,54.00
175,175,20.00,42.00
176,176,30.00,56.00
177,177,25.00,64.00
178,178,26.00,64.00
179,179,27.00,48.00
180,180,21.00,41.00
181,181,20.00,66.00
182,182,24.00,43.00
183,183,25.00,39.00
184,184,29.00,60.00
185,185,26.00,58.00
186,186,24.00,60.00
187,187,25.00,36.00
188,188,25.00,46.00
189,189,30.00,42.00
190,190,25.00,51.00
191,191,28.00,70.00
192,192,26.00,59.00
193,193,21.00,59.00
194,194,23.00,52.00
195,195,27.00,66.00
196,196,29.00,43.00
197,197,23.00,56.00
198,198,22.00,42.00
199,199,22.00,54.00
200,200,24.00,55.00
201,201,20.00,65.00
202,202,22.00,39.00
203,203,29.00,43.00
204,204,23.00,51.00
205,205,29.00,31.00
206,206,23.00,59.00
207,207,22.00,57.00
208,208,22.00,37.00
209,209,22.00,62.00
210,210,20.00,55.00
211,211,21.00,32.00
212,212,28.00,53.00
213,213,26.00,70.00
214,214,27.00,65.00
215,215,27.00,39.00
216,216,28.00,35.00
217,217,25.00,70.00
218,218,21.00,69.00
219,219,21.00,60.00
220,220,20.00,69.00
221,221,28.00,45.00
222,222,29.00,31.00
223,223,25.00,35.00
224,224,29.00,32.00
225,225,26.00,49.00
226,226,24.00,40.00
227,227,25.00,65.00
228,228,24.00,58.00
229,229,20.00,40.00
230,230,27.00,69.00
231,231,24.00,53.00
232,232,28.00,33.00
233,233,26.00,68.00
234,234,24.00,33.00
235,235,24.00,52.00
236,236,28.00,62.00
237,237,21.00,39.00
238,238,23.00,53.00
239,239,22.00,44.00
240,240,27.00,50.00
241,241,27.00,65.00
242,242,23.00,34.00
243,243,27.00,66.00
244,244,27.00,38.00
245,245,21.00,37.00
246,246,21.00,57.00
247,247,25.00,62.00
248,248,24.00,43.00
249,249,30.00,63.00
250,250,27.00,39.00
251,251,26.00,68.00
252,252,29.00,56.00
253,253,21.00,70.00
254,254,20.00,33.00
255,255,20.00,64.00
256,256,30.00,42.00
257,257,29.00,61.00
258,258,29.00,37.00
259,259,25.00,67.00
260,260,26.00,33.00
261,261,27.00,32.00
262,262,29.00,54.00
263,263,23.00,52.00
264,264,22.00,58.00
265,265,23.00,55.00
266,266,28.00,59.00
267,267,21.00,31.00
268,268,29.00,61.00
269,269,24.00,63.00
270,270,26.00,36.00
271,271,27.00,53.00
272,272,21.00,53.00
273,273,24.00,35.00
274,274,24.00,44.00
275,275,23.00,46.00
276,276,29.00,64.00
277,277,30.00,56.00
278,278,28.00,61.00
279,279,29.00,40.00
280,280,22.00,58.00
281,281,22.00,59.00
282,282,20.00,51.00
283,283,25.00,36.00
284,284,23.00,38.00
285,285,29.00,64.00
286,286,26.00,30.00
287,287,29.00,65.00
288,288,22.00,37.00
289,289,22.00,46.00
290,290,20.00,36.00
291,291,22.00,34.00
292,292,24.00,45.00
293,293,27.00,62.00
294,294,27.00,66.00
295,295,30.00,62.00
296,296,22.00,55.00
297,297,27.00,70.00
298,298,20.00,50.00
299,299,22.00,62.00
300,300,25.00,41.00
301,301,27.00,35.00
302,302,29.00,41.00
303,303,26.00,62.00
304,304,29.00,48.00
305,305,30.00,66.00
306,306,25.00,48.00
307,307,22.00,51.00
308,308,29.00,45.00
309,309,24.00,39.00
310,310,22.00,61.00
311,311,20.00,33.00
312,312,30.00,35.00
313,313,25.00,32.00
314,314,25.00,35.00
315,315,27.00,63.00
316,316,22.00,57.00
317,317,25.00,32.00
318,318,25.00,40.00
319,319,21.00,30.00
320,320,28.00,30.00
321,321,21.00,59.00
322,322,30.00,51.00
323,323,25.00,35.00
324,324,27.00,39.00
325,325,27.00,41.00
326,326,21.00,49.00
327,327,21.00,53.00
328,328,25.00,36.00
329,329,22.00,47.00
330,330,20.00,63.00
331,331,20.00,54.00
332,332,28.00,49.00
333,333,26.00,70.00
334,334,27.00,39.00
335,335,25.00,49.00
336,336,20.00,40.00
337,337,23.00,69.00
338,338,24.00,42.00
339,339,21.00,51.00
340,340,20.00,69.00
341,341,24.00,49.00
342,342,27.00,61.00
343,343,25.00,44.00
344,344,26.00,60.00
345,345,22.00,68.00
346,346,20.00,63.00
347,347,29.00,68.00
348,348,21.00,65.00
349,349,20.00,58.00
350,350,25.00,60.00
351,351,26.00,39.00
352,352,21.00,64.00
353,353,21.00,30.00
354,354,23.00,60.00
355,355,29.00,45.00
356,356,21.00,43.00
357,357,22.00,40.00
358,358,25.00,43.00
359,359,27.00,59.00
360,360,22.00,60.00
361,361,23.00,56.00
362,362,26.00,61.00
363,363,22.00,67.00
364,364,21.00,36.00
365,365,20.00,46.00
366,366,27.00,49.00
367,367,27.00,53.00
368,368,22.00,41.00
369,369,22.00,33.00
370,370,30.00,53.00
371,371,25.00,57.00
372,372,23.00,38.00
373,373,30.00,36.00
374,374,20.00,51.00
375,375,25.00,36.00
376,376,29.00,52.00
377,377,29.00,64.00
378,378,23.00,32.00
379,379,26.00,66.00
380,380,27.00,40.00
381,381,25.00,61.00
382,382,27.00,39.00
383,383,29.00,57.00
384,384,26.00,67.00
385,385,21.00,42.00
386,386,25.00,47.00
387,387,27.00,61.00
388,388,29.00,36.00
389,389,30.00,40.00
390,390,30.00,42.00
391,391,21.00,67.00
392,392,21.00,65.00
393,393,24.00,46.00
394,394,26.00,55.00
395,395,24.00,50.00
396,396,21.00,46.00
397,397,22.00,57.00
398,398,30.00,48.00
399,399,30.00,47.00
400,400,22.00,62.00
401,401,30.00,44.00
402,402,27.00,35.00
403,403,27.00,70.00
404,404,25.00,60.00
405,405,26.00,41.00
406,406,24.00,69.00
407,407,21.00,32.00
408,408,24.00,59.00
409,409,26.00,58.00
410,410,21.00,34.00
411,411,20.00,57.00
412,412,22.00,30.00
413,413,26.00,48.00
414,414,28.00,33.00
415,415,29.00,52.00
416,416,20.00,49.00
417,417,29.00,30.00
418,418,26.00,52.00
419,419,27.00,52.00
420,420,30.00,66.00
421,421,30.00,43.00
422,422,21.00,61.00
423,423,30.00,46.00
424,424,30.00,33.00
425,425,30.00,42.00
426,426,27.00,35.00
427,427,25.00,58.00
428,428,30.00,60.00
429,429,25.00,61.00
430,430,24.00,38.00
431,431,26.00,40.00
432,432,27.00,40.00
433,433,23.00,50.00
434,434,28.00,55.00
435,435,26.00,52.00
436,436,20.00,55.00
437,437,27.00,55.00
438,438,20.00,48.00
439,439,30.00,70.00
440,440,20.00,52.00
441,441,24.00,64.00
442,442,30.00,38.00
443,443,20.00,39.00
444,444,20.00,45.00
445,445,27.00,61.00
446,446,26.00,43.00
447,447,23.00,61.00
448,448,30.00,39.00
449,449,22.00,53.00
450,450,20.00,31.00
451,451,27.00,39.00
452,452,27.00,61.00
453,453,22.00,33.00
454,454,24.00,40.00
455,455,21.00,43.00
456,456,23.00,38.00
457,457,28.00,51.00
458,458,29.00,42.00
459,459,29.00,66.00
460,460,21.00,67.00
461,461,29.00,60.00
462,462,28.00,39.00
463,463,24.00,49.00
464,464,23.00,37.00
465,465,23.00,57.00
466,466,30.00,33.00
467,467,21.00,32.00
468,468,23.00,45.00
469,469,21.00,64.00
470,470,26.00,35.00
471,471,23.00,57.00
472,472,21.00,42.00
473,473,26.00,42.00
474,474,24.00,42.00
475,475,29.00,62.00
476,476,28.00,43.00
477,477,26.00,33.00
478,478,21.00,55.00
479,479,22.00,38.00
480,480,22.00,36.00
481,481,23.00,33.00
482,482,22.00,62.00
483,483,24.00,53.00
484,484,22.00,32.00
485,485,28.00,38.00
486,486,30.00,68.00
487,487,26.00,52.00
488,488,25.00,39.00
489,489,24.00,48.00
490,490,26.00,61.00
491,491,25.00,65.00
492,492,30.00,58.00
493,493,28.00,61.00
494,494,23.00,64.00
495,495,21.00,67.00
496,496,27.00,43.00
497,497,26.00,30.00
498,498,26.00,38.00
499,499,28.00,39.00
